[
    {
        "text":"This is really coooooool",
        "author":"Wellington Cordeiro"
    },
    {
        "text":"Lorem ipsum dolor sit amet, consectetur adipisicing elit. Beatae accusamus repellat fugiat eveniet consectetur ea asperiores voluptas nostrum non aliquam, pariatur, nihil sint odit autem temporibus! Fuga iste provident molestiae.",
        "author":"Bob Loblaw"
    },
    {
        "text":"What the fuck",
        "author":"Fooobar"
    }
]